==PROF== Connected to process 159142 (/work/djimenez/thesis/simple_kernel/kernel_abc)
==PROF== Disconnected from process 159142
"ID","Process ID","Process Name","Host Name","Kernel Name","Kernel Time","Context","Stream","Section Name","Metric Name","Metric Unit","Metric Value","Rule Name","Rule Type","Rule Description"
"0","159142","kernel_abc","127.0.0.1","kernel_A(double*, int, int)","2021-Nov-11 13:58:14","1","7","GPU Speed Of Light","DRAM Frequency","cycle/second","877 873 823,16",
"0","159142","kernel_abc","127.0.0.1","kernel_A(double*, int, int)","2021-Nov-11 13:58:14","1","7","GPU Speed Of Light","SM Frequency","cycle/second","1 237 921 353,97",
"0","159142","kernel_abc","127.0.0.1","kernel_A(double*, int, int)","2021-Nov-11 13:58:14","1","7","GPU Speed Of Light","Elapsed Cycles","cycle","64 160 737",
"0","159142","kernel_abc","127.0.0.1","kernel_A(double*, int, int)","2021-Nov-11 13:58:14","1","7","GPU Speed Of Light","Memory [%]","%","1,06",
"0","159142","kernel_abc","127.0.0.1","kernel_A(double*, int, int)","2021-Nov-11 13:58:14","1","7","GPU Speed Of Light","SOL DRAM","%","0,56",
"0","159142","kernel_abc","127.0.0.1","kernel_A(double*, int, int)","2021-Nov-11 13:58:14","1","7","GPU Speed Of Light","Duration","nsecond","51 823 648",
"0","159142","kernel_abc","127.0.0.1","kernel_A(double*, int, int)","2021-Nov-11 13:58:14","1","7","GPU Speed Of Light","SOL L1/TEX Cache","%","1,06",
"0","159142","kernel_abc","127.0.0.1","kernel_A(double*, int, int)","2021-Nov-11 13:58:14","1","7","GPU Speed Of Light","SOL L2 Cache","%","0,21",
"0","159142","kernel_abc","127.0.0.1","kernel_A(double*, int, int)","2021-Nov-11 13:58:14","1","7","GPU Speed Of Light","SM Active Cycles","cycle","64 045 856,19",
"0","159142","kernel_abc","127.0.0.1","kernel_A(double*, int, int)","2021-Nov-11 13:58:14","1","7","GPU Speed Of Light","SM [%]","%","99,76",
"0","159142","kernel_abc","127.0.0.1","kernel_A(double*, int, int)","2021-Nov-11 13:58:14","1","7","SpeedOfLight","","","","SOLBottleneck","OK","The kernel is utilizing greater than 80.0% of the available compute or memory performance of the device. To further improve performance, work will likely need to be shifted from the most utilized to another unit. Start by analyzing workloads in the Compute Workload Analysis section."
"0","159142","kernel_abc","127.0.0.1","kernel_A(double*, int, int)","2021-Nov-11 13:58:14","1","7","Compute Workload Analysis","Executed Ipc Active","inst/cycle","1,04",
"0","159142","kernel_abc","127.0.0.1","kernel_A(double*, int, int)","2021-Nov-11 13:58:14","1","7","Compute Workload Analysis","Executed Ipc Elapsed","inst/cycle","1,04",
"0","159142","kernel_abc","127.0.0.1","kernel_A(double*, int, int)","2021-Nov-11 13:58:14","1","7","Compute Workload Analysis","Issue Slots Busy","%","26,05",
"0","159142","kernel_abc","127.0.0.1","kernel_A(double*, int, int)","2021-Nov-11 13:58:14","1","7","Compute Workload Analysis","Issued Ipc Active","inst/cycle","1,04",
"0","159142","kernel_abc","127.0.0.1","kernel_A(double*, int, int)","2021-Nov-11 13:58:14","1","7","Compute Workload Analysis","SM Busy","%","99,93",
"0","159142","kernel_abc","127.0.0.1","kernel_A(double*, int, int)","2021-Nov-11 13:58:14","1","7","ComputeWorkloadAnalysis","","","","HighPipeUtilization","WRN","All pipelines are under-utilized. Either this kernel is very small or it doesn't issue enough warps per scheduler. Check the Launch Statistics and Scheduler Statistics sections for further details."
"0","159142","kernel_abc","127.0.0.1","kernel_A(double*, int, int)","2021-Nov-11 13:58:14","1","7","Memory Workload Analysis","Memory Throughput","byte/second","5 008 334 110,33",
"0","159142","kernel_abc","127.0.0.1","kernel_A(double*, int, int)","2021-Nov-11 13:58:14","1","7","Memory Workload Analysis","Mem Busy","%","1,06",
"0","159142","kernel_abc","127.0.0.1","kernel_A(double*, int, int)","2021-Nov-11 13:58:14","1","7","Memory Workload Analysis","Max Bandwidth","%","1,04",
"0","159142","kernel_abc","127.0.0.1","kernel_A(double*, int, int)","2021-Nov-11 13:58:14","1","7","Memory Workload Analysis","L1/TEX Hit Rate","%","39,66",
"0","159142","kernel_abc","127.0.0.1","kernel_A(double*, int, int)","2021-Nov-11 13:58:14","1","7","Memory Workload Analysis","L2 Hit Rate","%","49,90",
"0","159142","kernel_abc","127.0.0.1","kernel_A(double*, int, int)","2021-Nov-11 13:58:14","1","7","Memory Workload Analysis","Mem Pipes Busy","%","1,04",
"0","159142","kernel_abc","127.0.0.1","kernel_A(double*, int, int)","2021-Nov-11 13:58:14","1","7","Warp State Statistics","Warp Cycles Per Issued Instruction","cycle","57,26",
"0","159142","kernel_abc","127.0.0.1","kernel_A(double*, int, int)","2021-Nov-11 13:58:14","1","7","Warp State Statistics","Warp Cycles Per Executed Instruction","cycle","57,26",
"0","159142","kernel_abc","127.0.0.1","kernel_A(double*, int, int)","2021-Nov-11 13:58:14","1","7","Warp State Statistics","Avg. Active Threads Per Warp","","32",
"0","159142","kernel_abc","127.0.0.1","kernel_A(double*, int, int)","2021-Nov-11 13:58:14","1","7","Warp State Statistics","Avg. Not Predicated Off Threads Per Warp","","31,68",
"0","159142","kernel_abc","127.0.0.1","kernel_A(double*, int, int)","2021-Nov-11 13:58:14","1","7","WarpStateStats","","","","CPIStallMathPipeThrottle","WRN","On average each warp of this kernel spends 36.6 cycles being stalled waiting for a math execution pipeline to be available. This represents about 63.8% of the total average of 57.3 cycles between issuing two instructions. This stall occurs when all active warps execute their next instruction on a specific, oversubscribed math pipeline. Try to increase the number of active warps to hide the existent latency or try changing the instruction mix to utilize all available pipelines in a more balanced way."
"0","159142","kernel_abc","127.0.0.1","kernel_A(double*, int, int)","2021-Nov-11 13:58:14","1","7","Instruction Statistics","Avg. Executed Instructions Per Scheduler","inst","16 686 400",
"0","159142","kernel_abc","127.0.0.1","kernel_A(double*, int, int)","2021-Nov-11 13:58:14","1","7","Instruction Statistics","Executed Instructions","inst","5 339 648 000",
"0","159142","kernel_abc","127.0.0.1","kernel_A(double*, int, int)","2021-Nov-11 13:58:14","1","7","Instruction Statistics","Avg. Issued Instructions Per Scheduler","inst","16 686 530,82",
"0","159142","kernel_abc","127.0.0.1","kernel_A(double*, int, int)","2021-Nov-11 13:58:14","1","7","Instruction Statistics","Issued Instructions","inst","5 339 689 861",
"0","159142","kernel_abc","127.0.0.1","kernel_A(double*, int, int)","2021-Nov-11 13:58:14","1","7","Launch Statistics","Block Size","","64",
"0","159142","kernel_abc","127.0.0.1","kernel_A(double*, int, int)","2021-Nov-11 13:58:14","1","7","Launch Statistics","Grid Size","","256 000",
"0","159142","kernel_abc","127.0.0.1","kernel_A(double*, int, int)","2021-Nov-11 13:58:14","1","7","Launch Statistics","Registers Per Thread","register/thread","16",
"0","159142","kernel_abc","127.0.0.1","kernel_A(double*, int, int)","2021-Nov-11 13:58:14","1","7","Launch Statistics","Shared Memory Configuration Size","byte","0",
"0","159142","kernel_abc","127.0.0.1","kernel_A(double*, int, int)","2021-Nov-11 13:58:14","1","7","Launch Statistics","Driver Shared Memory Per Block","byte/block","0",
"0","159142","kernel_abc","127.0.0.1","kernel_A(double*, int, int)","2021-Nov-11 13:58:14","1","7","Launch Statistics","Dynamic Shared Memory Per Block","byte/block","0",
"0","159142","kernel_abc","127.0.0.1","kernel_A(double*, int, int)","2021-Nov-11 13:58:14","1","7","Launch Statistics","Static Shared Memory Per Block","byte/block","0",
"0","159142","kernel_abc","127.0.0.1","kernel_A(double*, int, int)","2021-Nov-11 13:58:14","1","7","Launch Statistics","Threads","thread","16 384 000",
"0","159142","kernel_abc","127.0.0.1","kernel_A(double*, int, int)","2021-Nov-11 13:58:14","1","7","Launch Statistics","Waves Per SM","","100",
"0","159142","kernel_abc","127.0.0.1","kernel_A(double*, int, int)","2021-Nov-11 13:58:14","1","7","Occupancy","Block Limit SM","block","32",
"0","159142","kernel_abc","127.0.0.1","kernel_A(double*, int, int)","2021-Nov-11 13:58:14","1","7","Occupancy","Block Limit Registers","block","64",
"0","159142","kernel_abc","127.0.0.1","kernel_A(double*, int, int)","2021-Nov-11 13:58:14","1","7","Occupancy","Block Limit Shared Mem","block","32",
"0","159142","kernel_abc","127.0.0.1","kernel_A(double*, int, int)","2021-Nov-11 13:58:14","1","7","Occupancy","Block Limit Warps","block","32",
"0","159142","kernel_abc","127.0.0.1","kernel_A(double*, int, int)","2021-Nov-11 13:58:14","1","7","Occupancy","Theoretical Active Warps per SM","warp","64",
"0","159142","kernel_abc","127.0.0.1","kernel_A(double*, int, int)","2021-Nov-11 13:58:14","1","7","Occupancy","Theoretical Occupancy","%","100",
"0","159142","kernel_abc","127.0.0.1","kernel_A(double*, int, int)","2021-Nov-11 13:58:14","1","7","Occupancy","Achieved Occupancy","%","93,23",
"0","159142","kernel_abc","127.0.0.1","kernel_A(double*, int, int)","2021-Nov-11 13:58:14","1","7","Occupancy","Achieved Active Warps Per SM","warp","59,67",
"1","159142","kernel_abc","127.0.0.1","kernel_B(double*, int, int)","2021-Nov-11 13:58:19","1","7","GPU Speed Of Light","DRAM Frequency","cycle/second","877 511 784,86",
"1","159142","kernel_abc","127.0.0.1","kernel_B(double*, int, int)","2021-Nov-11 13:58:19","1","7","GPU Speed Of Light","SM Frequency","cycle/second","1 237 395 923,72",
"1","159142","kernel_abc","127.0.0.1","kernel_B(double*, int, int)","2021-Nov-11 13:58:19","1","7","GPU Speed Of Light","Elapsed Cycles","cycle","259 676 923",
"1","159142","kernel_abc","127.0.0.1","kernel_B(double*, int, int)","2021-Nov-11 13:58:19","1","7","GPU Speed Of Light","Memory [%]","%","0,26",
"1","159142","kernel_abc","127.0.0.1","kernel_B(double*, int, int)","2021-Nov-11 13:58:19","1","7","GPU Speed Of Light","SOL DRAM","%","0,14",
"1","159142","kernel_abc","127.0.0.1","kernel_B(double*, int, int)","2021-Nov-11 13:58:19","1","7","GPU Speed Of Light","Duration","nsecond","209 828 480",
"1","159142","kernel_abc","127.0.0.1","kernel_B(double*, int, int)","2021-Nov-11 13:58:19","1","7","GPU Speed Of Light","SOL L1/TEX Cache","%","0,26",
"1","159142","kernel_abc","127.0.0.1","kernel_B(double*, int, int)","2021-Nov-11 13:58:19","1","7","GPU Speed Of Light","SOL L2 Cache","%","0,05",
"1","159142","kernel_abc","127.0.0.1","kernel_B(double*, int, int)","2021-Nov-11 13:58:19","1","7","GPU Speed Of Light","SM Active Cycles","cycle","258 998 485,95",
"1","159142","kernel_abc","127.0.0.1","kernel_B(double*, int, int)","2021-Nov-11 13:58:19","1","7","GPU Speed Of Light","SM [%]","%","24,65",
"1","159142","kernel_abc","127.0.0.1","kernel_B(double*, int, int)","2021-Nov-11 13:58:19","1","7","SpeedOfLight","","","","SOLBottleneck","WRN","This kernel exhibits low compute throughput and memory bandwidth utilization relative to the peak performance of this device. Achieved compute throughput and/or memory bandwidth below 60.0% of peak typically indicate latency issues. Look at Scheduler Statistics and Warp State Statistics for potential reasons."
"1","159142","kernel_abc","127.0.0.1","kernel_B(double*, int, int)","2021-Nov-11 13:58:19","1","7","Compute Workload Analysis","Executed Ipc Active","inst/cycle","0,26",
"1","159142","kernel_abc","127.0.0.1","kernel_B(double*, int, int)","2021-Nov-11 13:58:19","1","7","Compute Workload Analysis","Executed Ipc Elapsed","inst/cycle","0,26",
"1","159142","kernel_abc","127.0.0.1","kernel_B(double*, int, int)","2021-Nov-11 13:58:19","1","7","Compute Workload Analysis","Issue Slots Busy","%","6,44",
"1","159142","kernel_abc","127.0.0.1","kernel_B(double*, int, int)","2021-Nov-11 13:58:19","1","7","Compute Workload Analysis","Issued Ipc Active","inst/cycle","0,26",
"1","159142","kernel_abc","127.0.0.1","kernel_B(double*, int, int)","2021-Nov-11 13:58:19","1","7","Compute Workload Analysis","SM Busy","%","24,71",
"1","159142","kernel_abc","127.0.0.1","kernel_B(double*, int, int)","2021-Nov-11 13:58:19","1","7","ComputeWorkloadAnalysis","","","","HighPipeUtilization","WRN","All pipelines are under-utilized. Either this kernel is very small or it doesn't issue enough warps per scheduler. Check the Launch Statistics and Scheduler Statistics sections for further details."
"1","159142","kernel_abc","127.0.0.1","kernel_B(double*, int, int)","2021-Nov-11 13:58:19","1","7","Memory Workload Analysis","Memory Throughput","byte/second","1 235 096 551,24",
"1","159142","kernel_abc","127.0.0.1","kernel_B(double*, int, int)","2021-Nov-11 13:58:19","1","7","Memory Workload Analysis","Mem Busy","%","0,26",
"1","159142","kernel_abc","127.0.0.1","kernel_B(double*, int, int)","2021-Nov-11 13:58:19","1","7","Memory Workload Analysis","Max Bandwidth","%","0,26",
"1","159142","kernel_abc","127.0.0.1","kernel_B(double*, int, int)","2021-Nov-11 13:58:19","1","7","Memory Workload Analysis","L1/TEX Hit Rate","%","50",
"1","159142","kernel_abc","127.0.0.1","kernel_B(double*, int, int)","2021-Nov-11 13:58:19","1","7","Memory Workload Analysis","L2 Hit Rate","%","49,96",
"1","159142","kernel_abc","127.0.0.1","kernel_B(double*, int, int)","2021-Nov-11 13:58:19","1","7","Memory Workload Analysis","Mem Pipes Busy","%","0,26",
"1","159142","kernel_abc","127.0.0.1","kernel_B(double*, int, int)","2021-Nov-11 13:58:19","1","7","Warp State Statistics","Warp Cycles Per Issued Instruction","cycle","7,76",
"1","159142","kernel_abc","127.0.0.1","kernel_B(double*, int, int)","2021-Nov-11 13:58:19","1","7","Warp State Statistics","Warp Cycles Per Executed Instruction","cycle","7,76",
"1","159142","kernel_abc","127.0.0.1","kernel_B(double*, int, int)","2021-Nov-11 13:58:19","1","7","Warp State Statistics","Avg. Active Threads Per Warp","","32",
"1","159142","kernel_abc","127.0.0.1","kernel_B(double*, int, int)","2021-Nov-11 13:58:19","1","7","Warp State Statistics","Avg. Not Predicated Off Threads Per Warp","","31,68",
"1","159142","kernel_abc","127.0.0.1","kernel_B(double*, int, int)","2021-Nov-11 13:58:19","1","7","WarpStateStats","","","","CPIStallWait","WRN","On average each warp of this kernel spends 6.7 cycles being stalled on a fixed latency execution dependency. This represents about 86.0% of the total average of 7.8 cycles between issuing two instructions. Typically, this stall reason should be very low and only shows up as a top contributor in already highly optimized kernels. If possible, try to further increase the number of active warps to hide the corresponding instruction latencies."
"1","159142","kernel_abc","127.0.0.1","kernel_B(double*, int, int)","2021-Nov-11 13:58:19","1","7","Instruction Statistics","Avg. Executed Instructions Per Scheduler","inst","16 686 400",
"1","159142","kernel_abc","127.0.0.1","kernel_B(double*, int, int)","2021-Nov-11 13:58:19","1","7","Instruction Statistics","Executed Instructions","inst","5 339 648 000",
"1","159142","kernel_abc","127.0.0.1","kernel_B(double*, int, int)","2021-Nov-11 13:58:19","1","7","Instruction Statistics","Avg. Issued Instructions Per Scheduler","inst","16 686 897,60",
"1","159142","kernel_abc","127.0.0.1","kernel_B(double*, int, int)","2021-Nov-11 13:58:19","1","7","Instruction Statistics","Issued Instructions","inst","5 339 807 232",
"1","159142","kernel_abc","127.0.0.1","kernel_B(double*, int, int)","2021-Nov-11 13:58:19","1","7","Launch Statistics","Block Size","","64",
"1","159142","kernel_abc","127.0.0.1","kernel_B(double*, int, int)","2021-Nov-11 13:58:19","1","7","Launch Statistics","Grid Size","","256 000",
"1","159142","kernel_abc","127.0.0.1","kernel_B(double*, int, int)","2021-Nov-11 13:58:19","1","7","Launch Statistics","Registers Per Thread","register/thread","16",
"1","159142","kernel_abc","127.0.0.1","kernel_B(double*, int, int)","2021-Nov-11 13:58:19","1","7","Launch Statistics","Shared Memory Configuration Size","byte","98 304",
"1","159142","kernel_abc","127.0.0.1","kernel_B(double*, int, int)","2021-Nov-11 13:58:19","1","7","Launch Statistics","Driver Shared Memory Per Block","byte/block","0",
"1","159142","kernel_abc","127.0.0.1","kernel_B(double*, int, int)","2021-Nov-11 13:58:19","1","7","Launch Statistics","Dynamic Shared Memory Per Block","byte/block","98 304",
"1","159142","kernel_abc","127.0.0.1","kernel_B(double*, int, int)","2021-Nov-11 13:58:19","1","7","Launch Statistics","Static Shared Memory Per Block","byte/block","0",
"1","159142","kernel_abc","127.0.0.1","kernel_B(double*, int, int)","2021-Nov-11 13:58:19","1","7","Launch Statistics","Threads","thread","16 384 000",
"1","159142","kernel_abc","127.0.0.1","kernel_B(double*, int, int)","2021-Nov-11 13:58:19","1","7","Launch Statistics","Waves Per SM","","3 200",
"1","159142","kernel_abc","127.0.0.1","kernel_B(double*, int, int)","2021-Nov-11 13:58:19","1","7","Occupancy","Block Limit SM","block","32",
"1","159142","kernel_abc","127.0.0.1","kernel_B(double*, int, int)","2021-Nov-11 13:58:19","1","7","Occupancy","Block Limit Registers","block","64",
"1","159142","kernel_abc","127.0.0.1","kernel_B(double*, int, int)","2021-Nov-11 13:58:19","1","7","Occupancy","Block Limit Shared Mem","block","1",
"1","159142","kernel_abc","127.0.0.1","kernel_B(double*, int, int)","2021-Nov-11 13:58:19","1","7","Occupancy","Block Limit Warps","block","32",
"1","159142","kernel_abc","127.0.0.1","kernel_B(double*, int, int)","2021-Nov-11 13:58:19","1","7","Occupancy","Theoretical Active Warps per SM","warp","2",
"1","159142","kernel_abc","127.0.0.1","kernel_B(double*, int, int)","2021-Nov-11 13:58:19","1","7","Occupancy","Theoretical Occupancy","%","3,12",
"1","159142","kernel_abc","127.0.0.1","kernel_B(double*, int, int)","2021-Nov-11 13:58:19","1","7","Occupancy","Achieved Occupancy","%","3,12",
"1","159142","kernel_abc","127.0.0.1","kernel_B(double*, int, int)","2021-Nov-11 13:58:19","1","7","Occupancy","Achieved Active Warps Per SM","warp","2,00",
"2","159142","kernel_abc","127.0.0.1","kernel_C(double*, double const*, int)","2021-Nov-11 13:58:20","1","7","GPU Speed Of Light","DRAM Frequency","cycle/second","876 021 895,22",
"2","159142","kernel_abc","127.0.0.1","kernel_C(double*, double const*, int)","2021-Nov-11 13:58:20","1","7","GPU Speed Of Light","SM Frequency","cycle/second","1 233 553 781,31",
"2","159142","kernel_abc","127.0.0.1","kernel_C(double*, double const*, int)","2021-Nov-11 13:58:20","1","7","GPU Speed Of Light","Elapsed Cycles","cycle","555 939",
"2","159142","kernel_abc","127.0.0.1","kernel_C(double*, double const*, int)","2021-Nov-11 13:58:20","1","7","GPU Speed Of Light","Memory [%]","%","64,17",
"2","159142","kernel_abc","127.0.0.1","kernel_C(double*, double const*, int)","2021-Nov-11 13:58:20","1","7","GPU Speed Of Light","SOL DRAM","%","64,17",
"2","159142","kernel_abc","127.0.0.1","kernel_C(double*, double const*, int)","2021-Nov-11 13:58:20","1","7","GPU Speed Of Light","Duration","nsecond","450 144",
"2","159142","kernel_abc","127.0.0.1","kernel_C(double*, double const*, int)","2021-Nov-11 13:58:20","1","7","GPU Speed Of Light","SOL L1/TEX Cache","%","91,58",
"2","159142","kernel_abc","127.0.0.1","kernel_C(double*, double const*, int)","2021-Nov-11 13:58:20","1","7","GPU Speed Of Light","SOL L2 Cache","%","60,35",
"2","159142","kernel_abc","127.0.0.1","kernel_C(double*, double const*, int)","2021-Nov-11 13:58:20","1","7","GPU Speed Of Light","SM Active Cycles","cycle","549 572,07",
"2","159142","kernel_abc","127.0.0.1","kernel_C(double*, double const*, int)","2021-Nov-11 13:58:20","1","7","GPU Speed Of Light","SM [%]","%","5,19",
"2","159142","kernel_abc","127.0.0.1","kernel_C(double*, double const*, int)","2021-Nov-11 13:58:20","1","7","SpeedOfLight","","","","SOLBottleneck","WRN","Memory is more heavily utilized than Compute: Look at the Memory Workload Analysis report section to see where the memory system bottleneck is. Check memory replay (coalescing) metrics to make sure you're efficiently utilizing the bytes transferred. Also consider whether it is possible to do more work per memory access (kernel fusion) or whether there are values you can (re)compute."
"2","159142","kernel_abc","127.0.0.1","kernel_C(double*, double const*, int)","2021-Nov-11 13:58:20","1","7","Compute Workload Analysis","Executed Ipc Active","inst/cycle","0,21",
"2","159142","kernel_abc","127.0.0.1","kernel_C(double*, double const*, int)","2021-Nov-11 13:58:20","1","7","Compute Workload Analysis","Executed Ipc Elapsed","inst/cycle","0,21",
"2","159142","kernel_abc","127.0.0.1","kernel_C(double*, double const*, int)","2021-Nov-11 13:58:20","1","7","Compute Workload Analysis","Issue Slots Busy","%","5,24",
"2","159142","kernel_abc","127.0.0.1","kernel_C(double*, double const*, int)","2021-Nov-11 13:58:20","1","7","Compute Workload Analysis","Issued Ipc Active","inst/cycle","0,21",
"2","159142","kernel_abc","127.0.0.1","kernel_C(double*, double const*, int)","2021-Nov-11 13:58:20","1","7","Compute Workload Analysis","SM Busy","%","5,24",
"2","159142","kernel_abc","127.0.0.1","kernel_C(double*, double const*, int)","2021-Nov-11 13:58:20","1","7","ComputeWorkloadAnalysis","","","","HighPipeUtilization","WRN","All pipelines are under-utilized. Either this kernel is very small or it doesn't issue enough warps per scheduler. Check the Launch Statistics and Scheduler Statistics sections for further details."
"2","159142","kernel_abc","127.0.0.1","kernel_C(double*, double const*, int)","2021-Nov-11 13:58:20","1","7","Memory Workload Analysis","Memory Throughput","byte/second","575 645 979 953,08",
"2","159142","kernel_abc","127.0.0.1","kernel_C(double*, double const*, int)","2021-Nov-11 13:58:20","1","7","Memory Workload Analysis","Mem Busy","%","60,35",
"2","159142","kernel_abc","127.0.0.1","kernel_C(double*, double const*, int)","2021-Nov-11 13:58:20","1","7","Memory Workload Analysis","Max Bandwidth","%","64,17",
"2","159142","kernel_abc","127.0.0.1","kernel_C(double*, double const*, int)","2021-Nov-11 13:58:20","1","7","Memory Workload Analysis","L1/TEX Hit Rate","%","0,60",
"2","159142","kernel_abc","127.0.0.1","kernel_C(double*, double const*, int)","2021-Nov-11 13:58:20","1","7","Memory Workload Analysis","L2 Hit Rate","%","89,69",
"2","159142","kernel_abc","127.0.0.1","kernel_C(double*, double const*, int)","2021-Nov-11 13:58:20","1","7","Memory Workload Analysis","Mem Pipes Busy","%","4,61",
"2","159142","kernel_abc","127.0.0.1","kernel_C(double*, double const*, int)","2021-Nov-11 13:58:20","1","7","Warp State Statistics","Warp Cycles Per Issued Instruction","cycle","71,38",
"2","159142","kernel_abc","127.0.0.1","kernel_C(double*, double const*, int)","2021-Nov-11 13:58:20","1","7","Warp State Statistics","Warp Cycles Per Executed Instruction","cycle","71,39",
"2","159142","kernel_abc","127.0.0.1","kernel_C(double*, double const*, int)","2021-Nov-11 13:58:20","1","7","Warp State Statistics","Avg. Active Threads Per Warp","","32",
"2","159142","kernel_abc","127.0.0.1","kernel_C(double*, double const*, int)","2021-Nov-11 13:58:20","1","7","Warp State Statistics","Avg. Not Predicated Off Threads Per Warp","","28,44",
"2","159142","kernel_abc","127.0.0.1","kernel_C(double*, double const*, int)","2021-Nov-11 13:58:20","1","7","WarpStateStats","","","","CPIStallLongScoreboard","WRN","On average each warp of this kernel spends 58.3 cycles being stalled waiting for a scoreboard dependency on a L1TEX (local, global, surface, texture) operation. This represents about 81.7% of the total average of 71.4 cycles between issuing two instructions. To reduce the number of cycles waiting on L1TEX data accesses verify the memory access patterns are optimal for the target architecture, attempt to increase cache hit rates by increasing data locality or by changing the cache configuration, and consider moving frequently used data to shared memory."
"2","159142","kernel_abc","127.0.0.1","kernel_C(double*, double const*, int)","2021-Nov-11 13:58:20","1","7","Instruction Statistics","Avg. Executed Instructions Per Scheduler","inst","28 800",
"2","159142","kernel_abc","127.0.0.1","kernel_C(double*, double const*, int)","2021-Nov-11 13:58:20","1","7","Instruction Statistics","Executed Instructions","inst","9 216 000",
"2","159142","kernel_abc","127.0.0.1","kernel_C(double*, double const*, int)","2021-Nov-11 13:58:20","1","7","Instruction Statistics","Avg. Issued Instructions Per Scheduler","inst","28 803,71",
"2","159142","kernel_abc","127.0.0.1","kernel_C(double*, double const*, int)","2021-Nov-11 13:58:20","1","7","Instruction Statistics","Issued Instructions","inst","9 217 186",
"2","159142","kernel_abc","127.0.0.1","kernel_C(double*, double const*, int)","2021-Nov-11 13:58:20","1","7","Launch Statistics","Block Size","","64",
"2","159142","kernel_abc","127.0.0.1","kernel_C(double*, double const*, int)","2021-Nov-11 13:58:20","1","7","Launch Statistics","Grid Size","","256 000",
"2","159142","kernel_abc","127.0.0.1","kernel_C(double*, double const*, int)","2021-Nov-11 13:58:20","1","7","Launch Statistics","Registers Per Thread","register/thread","16",
"2","159142","kernel_abc","127.0.0.1","kernel_C(double*, double const*, int)","2021-Nov-11 13:58:20","1","7","Launch Statistics","Shared Memory Configuration Size","byte","0",
"2","159142","kernel_abc","127.0.0.1","kernel_C(double*, double const*, int)","2021-Nov-11 13:58:20","1","7","Launch Statistics","Driver Shared Memory Per Block","byte/block","0",
"2","159142","kernel_abc","127.0.0.1","kernel_C(double*, double const*, int)","2021-Nov-11 13:58:20","1","7","Launch Statistics","Dynamic Shared Memory Per Block","byte/block","0",
"2","159142","kernel_abc","127.0.0.1","kernel_C(double*, double const*, int)","2021-Nov-11 13:58:20","1","7","Launch Statistics","Static Shared Memory Per Block","byte/block","0",
"2","159142","kernel_abc","127.0.0.1","kernel_C(double*, double const*, int)","2021-Nov-11 13:58:20","1","7","Launch Statistics","Threads","thread","16 384 000",
"2","159142","kernel_abc","127.0.0.1","kernel_C(double*, double const*, int)","2021-Nov-11 13:58:20","1","7","Launch Statistics","Waves Per SM","","100",
"2","159142","kernel_abc","127.0.0.1","kernel_C(double*, double const*, int)","2021-Nov-11 13:58:20","1","7","Occupancy","Block Limit SM","block","32",
"2","159142","kernel_abc","127.0.0.1","kernel_C(double*, double const*, int)","2021-Nov-11 13:58:20","1","7","Occupancy","Block Limit Registers","block","64",
"2","159142","kernel_abc","127.0.0.1","kernel_C(double*, double const*, int)","2021-Nov-11 13:58:20","1","7","Occupancy","Block Limit Shared Mem","block","32",
"2","159142","kernel_abc","127.0.0.1","kernel_C(double*, double const*, int)","2021-Nov-11 13:58:20","1","7","Occupancy","Block Limit Warps","block","32",
"2","159142","kernel_abc","127.0.0.1","kernel_C(double*, double const*, int)","2021-Nov-11 13:58:20","1","7","Occupancy","Theoretical Active Warps per SM","warp","64",
"2","159142","kernel_abc","127.0.0.1","kernel_C(double*, double const*, int)","2021-Nov-11 13:58:20","1","7","Occupancy","Theoretical Occupancy","%","100",
"2","159142","kernel_abc","127.0.0.1","kernel_C(double*, double const*, int)","2021-Nov-11 13:58:20","1","7","Occupancy","Achieved Occupancy","%","24,49",
"2","159142","kernel_abc","127.0.0.1","kernel_C(double*, double const*, int)","2021-Nov-11 13:58:20","1","7","Occupancy","Achieved Active Warps Per SM","warp","15,68",
