Start,End,Duration,DurChild,DurNonChild,Name,PID,TID,Lvl,NumChild,RangeId,ParentId,RangeStack,NameTree
15932603,10039233506,10023300903,10069142450,-45841547,main,129726,129726,0,9209,1,,:1,main
329015304,329030613,15309,0,15309,InitMeshDecomp,129726,129726,1,0,2,1,:1:2,--InitMeshDecomp
329033959,4506066492,4177032533,0,4177032533,NewDomain,129726,129726,1,0,3,1,:1:3,--NewDomain
4510984829,4510992453,7624,0,7624,cudaDeviceSetCacheConfig,129726,129726,1,0,4,1,:1:4,--cudaDeviceSetCacheConfig
4511076953,4517960128,6883175,6874989,8186,LagrangeLeapFrog,129726,129726,1,3,5,1,:1:5,--LagrangeLeapFrog
4511083626,4512957632,1874006,1883703,-9697,LagrangeNodal,129726,129726,2,5,6,5,:1:5:6,----LagrangeNodal
4511084067,4512909831,1825764,1824332,1432,CalcForceForNodes,129726,129726,3,2,7,6,:1:5:6:7,------CalcForceForNodes
4511084537,4512897498,1812961,42340,1770621,CalcVolumeForceForElems,129726,129726,4,2,8,7,:1:5:6:7:8,--------CalcVolumeForceForElems
4512853785,4512883742,29957,0,29957,CalcVolumeForceForElems_kernel,129726,129726,5,0,9,8,:1:5:6:7:8:9,----------CalcVolumeForceForElems_kernel
4512884183,4512896566,12383,0,12383,AddNodeFocesFromElems_kernel,129726,129726,5,0,10,8,:1:5:6:7:8:10,----------AddNodeFocesFromElems_kernel
4512897869,4512909240,11371,0,11371,TimeIncrement,129726,129726,4,0,11,7,:1:5:6:7:11,--------TimeIncrement
4512910012,4512921594,11582,0,11582,CalcAccelerationForNodes,129726,129726,3,0,12,6,:1:5:6:12,------CalcAccelerationForNodes
4512910272,4512921323,11051,0,11051,CalcAccelerationForNodes_kernel,129726,129726,3,0,13,6,:1:5:6:13,------CalcAccelerationForNodes_kernel
4512921874,4512946300,24426,23354,1072,ApplyAccelerationBoundaryConditionsForNodes,129726,129726,3,3,14,6,:1:5:6:14,------ApplyAccelerationBoundaryConditionsForNodes
4512922095,4512931523,9428,0,9428,ApplyAccelerationBoundaryConditionsForNodes_kernel,129726,129726,4,0,15,14,:1:5:6:14:15,--------ApplyAccelerationBoundaryConditionsForNodes_kernel
4512931803,4512938816,7013,0,7013,ApplyAccelerationBoundaryConditionsForNodes_kernel,129726,129726,4,0,16,14,:1:5:6:14:16,--------ApplyAccelerationBoundaryConditionsForNodes_kernel
4512939107,4512946020,6913,0,6913,ApplyAccelerationBoundaryConditionsForNodes_kernel,129726,129726,4,0,17,14,:1:5:6:14:17,--------ApplyAccelerationBoundaryConditionsForNodes_kernel
