Start (ns),End (ns),Duration (ns),DurChild (ns),DurNonChild (ns),Name,PID,TID,Lvl,NumChild,RangeId,ParentId,RangeStack,NameTree
15932603,10039233506,10023300903,10069142450,-45841547,main,129726,129726,0,9209,1,,:1,main
329015304,329030613,15309,0,15309,InitMeshDecomp,129726,129726,1,0,2,1,:1:2,--InitMeshDecomp
329033959,4506066492,4177032533,0,4177032533,NewDomain,129726,129726,1,0,3,1,:1:3,--NewDomain
4510984829,4510992453,7624,0,7624,cudaDeviceSetCacheConfig,129726,129726,1,0,4,1,:1:4,--cudaDeviceSetCacheConfig
4511076953,4517960128,6883175,6874989,8186,LagrangeLeapFrog,129726,129726,1,3,5,1,:1:5,--LagrangeLeapFrog
