{
 "data": [
  [
   9,
   0,
   9,
   null
  ],
  [
   120.615900106,
   0,
   37.063037451,
   0
  ],
  [
   0.786085973,
   0,
   0.786085973,
   1
  ],
  [
   0.000975107,
   0,
   0.000108594,
   2
  ],
  [
   0.00031949,
   0,
   0.00031949,
   3
  ],
  [
   0.008188266,
   0,
   0.008188266,
   4
  ],
  [
   0.250584313,
   0,
   6.5059e-05,
   5
  ],
  [
   82.412537515,
   0,
   0.004582745,
   6
  ],
  [
   4.3746e-05,
   0,
   4.3746e-05,
   7
  ],
  [
   3.6843e-05,
   0,
   3.6843e-05,
   8
  ],
  [
   0.001715442,
   0,
   0.001715442,
   9
  ],
  [
   82.406078115,
   0,
   0.110186539,
   10
  ],
  [
   8.0624e-05,
   0,
   8.0624e-05,
   11
  ],
  [
   0.094171991,
   0,
   0.094171991,
   12
  ]
 ],
 "columns": [
  "inclusive#sum#time.duration",
  "mpi.rank",
  "sum#time.duration",
  "path"
 ],
 "column_metadata": [
  {
   "is_value": true
  },
  {
   "is_value": true
  },
  {
   "is_value": true
  },
  {
   "is_value": false
  }
 ],
 "nodes": [
  {
   "column": "path",
   "label": "main"
  },
  {
   "column": "path",
   "label": "MPI:MPI_Init_thread",
   "parent": 0
  },
  {
   "column": "path",
   "label": "MPI:MPI_Bcast",
   "parent": 0
  },
  {
   "column": "path",
   "label": "MPI:MPI_Gather",
   "parent": 0
  },
  {
   "column": "path",
   "label": "MPI:MPI_Scatterv",
   "parent": 0
  },
  {
   "column": "path",
   "label": "MPI:MPI_Barrier",
   "parent": 0
  },
  {
   "column": "path",
   "label": "runParticles",
   "parent": 0
  },
  {
   "column": "path",
   "label": "MPI:MPI_Scan",
   "parent": 6
  },
  {
   "column": "path",
   "label": "MPI:MPI_Barrier",
   "parent": 6
  },
  {
   "column": "path",
   "label": "memcpyH2D",
   "parent": 6
  },
  {
   "column": "path",
   "label": "runParticles_kernel",
   "parent": 6
  },
  {
   "column": "path",
   "label": "memcpyD2H",
   "parent": 6
  },
  {
   "column": "path",
   "label": "MPI:MPI_Finalize",
   "parent": 0
  }
 ]
}